<?xml version="1.0" encoding="UTF-8"?>
<svg width="57px" height="39px" viewBox="0 0 57 39" version="1.1" xmlns="http://www.w3.org/2000/svg" xmlns:xlink="http://www.w3.org/1999/xlink">
    <title>“</title>
    <g id="Page-1" stroke="none" stroke-width="1" fill="none" fill-rule="evenodd">
        <g id="1.0-Homepage-v4" transform="translate(-858.000000, -7377.000000)" fill="#75828C" fill-rule="nonzero">
            <g id="FOOTER" transform="translate(0.000000, 7200.000000)">
                <g id="Quote" transform="translate(858.000000, 72.000000)">
                    <path d="M14.6714286,144 C21.7285714,144 26,139.128063 26,133.506597 C26,128.072514 22.4714286,125.261781 15.6,123.762723 C9.84285714,122.63843 5.75714286,121.701519 5.75714286,117.579111 C5.75714286,112.519791 12.6285714,108.210001 18.7571429,106.148797 C19.5,105.774032 19.1285714,104.837121 18.2,105.024504 C9.65714286,107.835237 0,114.580996 0,127.697749 C0,137.441623 6.12857143,144 14.6714286,144 Z M45.6714286,144 C52.7285714,144 57,139.128063 57,133.506597 C57,128.072514 53.4714286,125.261781 46.6,123.762723 C40.8428571,122.63843 36.7571429,121.701519 36.7571429,117.579111 C36.7571429,112.519791 43.6285714,108.210001 49.7571429,106.148797 C50.5,105.774032 50.1285714,104.837121 49.2,105.024504 C40.6571429,107.835237 31,114.018849 31,127.135603 C31,136.879477 37.1285714,144 45.6714286,144 Z" id="“"></path>
                </g>
            </g>
        </g>
    </g>
</svg>